[
    {
        "id": 2611500,
        "name": "Avenel, New Jersey, United States of America",
        "region": "New Jersey",
        "country": "United States of America",
        "lat": 40.58,
        "lon": -74.29,
        "url": "avenel-new-jersey-united-states-of-america"
    },
    {
        "id": 2612016,
        "name": "Edgar, New Jersey, United States of America",
        "region": "New Jersey",
        "country": "United States of America",
        "lat": 40.57,
        "lon": -74.28,
        "url": "edgar-new-jersey-united-states-of-america"
    },
    {
        "id": 2612324,
        "name": "Hazelton, New Jersey, United States of America",
        "region": "New Jersey",
        "country": "United States of America",
        "lat": 40.59,
        "lon": -74.29,
        "url": "hazelton-new-jersey-united-states-of-america"
    },
    {
        "id": 2613116,
        "name": "Port Reading, New Jersey, United States of America",
        "region": "New Jersey",
        "country": "United States of America",
        "lat": 40.57,
        "lon": -74.26,
        "url": "port-reading-new-jersey-united-states-of-america"
    },
    {
        "id": 2611855,
        "name": "Colonia, New Jersey, United States of America",
        "region": "New Jersey",
        "country": "United States of America",
        "lat": 40.57,
        "lon": -74.3,
        "url": "colonia-new-jersey-united-states-of-america"
    },
    {
        "id": 2613766,
        "name": "Woodbridge, New Jersey, United States of America",
        "region": "New Jersey",
        "country": "United States of America",
        "lat": 40.56,
        "lon": -74.29,
        "url": "woodbridge-new-jersey-united-states-of-america"
    },
    {
        "id": 2613038,
        "name": "Perth Amboy Junction, New Jersey, United States of America",
        "region": "New Jersey",
        "country": "United States of America",
        "lat": 40.6,
        "lon": -74.29,
        "url": "perth-amboy-junction-new-jersey-united-states-of-america"
    },
    {
        "id": 2613673,
        "name": "West Carteret, New Jersey, United States of America",
        "region": "New Jersey",
        "country": "United States of America",
        "lat": 40.59,
        "lon": -74.25,
        "url": "west-carteret-new-jersey-united-states-of-america"
    },
    {
        "id": 2613316,
        "name": "Sewaren, New Jersey, United States of America",
        "region": "New Jersey",
        "country": "United States of America",
        "lat": 40.55,
        "lon": -74.26,
        "url": "sewaren-new-jersey-united-states-of-america"
    },
    {
        "id": 2613155,
        "name": "Rahway, New Jersey, United States of America",
        "region": "New Jersey",
        "country": "United States of America",
        "lat": 40.61,
        "lon": -74.28,
        "url": "rahway-new-jersey-united-states-of-america"
    }
]
